<svg xmlns="http://www.w3.org/2000/svg" viewBox="0 0 304.13 266.15">
    <title>icon-wishlist</title>
    <g id="3000e12c-531f-4657-bc70-aba0ddf92d93" data-name="Layer 2">
        <g id="1c096d0f-b7b0-432f-a669-c6bf37a9ddd2" data-name="Layer 1"><path
            d="M278.5,24.66a84.24,84.24,0,0,0-119.11,0l-7.84,7.84-7.84-7.84A84.22,84.22,0,0,0,24.61,143.77L142.28,261.44a13.44,13.44,0,0,0,9.35,3.81,13,13,0,0,0,9.2-3.81L278.5,143.77A84.31,84.31,0,0,0,278.5,24.66ZM260.11,125.37,151.56,233.92,43,125.37a58.2,58.2,0,0,1,82.31-82.31l17,17a13.4,13.4,0,0,0,18.4,0l17-17A58.2,58.2,0,1,1,260,125.37Z"
            /></g>
        <g id="hover" data-name="Layer 2"><path d="M279.5,25.55a84.24,84.24,0,0,0-119.11,0l-7.84,7.84-7.84-7.84A84.22,84.22,0,0,0,25.6,144.66L143.28,262.33a13.44,13.44,0,0,0,9.35,3.81,13,13,0,0,0,9.2-3.81L279.5,144.66A84.31,84.31,0,0,0,279.5,25.55Z" /></g>
    </g>
</svg>
