<?xml version="1.0" encoding="utf-8"?>
<!-- Generator: Adobe Illustrator 21.0.2, SVG Export Plug-In . SVG Version: 6.00 Build 0)  -->
<svg version="1.1" id="Layer_1" xmlns="http://www.w3.org/2000/svg" xmlns:xlink="http://www.w3.org/1999/xlink" x="0px" y="0px"
	 viewBox="0 0 43 8" style="enable-background:new 0 0 43 8;" xml:space="preserve">
<path d="M0,4L0,4c0-2.2,1.8-4,4-4l35,0c2.2,0,4,1.8,4,4v0c0,2.2-1.8,4-4,4H4C1.8,8,0,6.2,0,4z"/>
</svg>
